compare_gene_ontology
…
damsel_genes <- annotatePeaksGenes(damsel_peaks, genes, gatc_regions)
damsel_genes

$closest
# A tibble: 2,873 × 13
   seqnames  start    end width total_regions n_regions_dm peak_id rank_p
   <fct>     <int>  <int> <dbl>         <int>        <dbl> <chr>    <int>
 1 chr2L      5154   9484  4331             8            3 PS_1      2814
 2 chr2L      9839  21376 11538            33            5 PS_3       192
 3 chr2L     19789  25155  5367            14            5 PS_4        64
 4 chr2L     25402  65404 40003            93            3 PM_5      2727
 5 chr2L     65609  68330  2722             7            7 PS_7       764
 6 chr2L     71493  76602  5110             7            7 PS_8       763
 7 chr2L     76348  79736  3389            10            4 PM_9      3071
 8 chr2L     93094 102086  8993            31            9 PM_11      466
 9 chr2L     94739 102086  7348            28            7 PS_14     1548
10 chr2L    114726 156030 41305           128            7 PS_17      849
# ℹ 2,863 more rows
# ℹ 5 more variables: gene_position <chr>, ensembl_gene_id <chr>,
#   gene_name <chr>, midpoint_is <chr>, position <chr>

$top_five
# A tibble: 2,873 × 11
   seqnames  start    end peak_id rank_p n_genes list_ensembl list_gene position
   <fct>     <int>  <int> <chr>    <int>   <int> <chr>        <chr>     <chr>   
 1 chr2L      5154   9484 PS_1      2814       1 FBgn0031208  CR11023   Peak_up…
 2 chr2L      9839  21376 PS_3       192       1 FBgn0002121  l(2)gl    Peak_wi…
 3 chr2L      9839  25155 PS_4        64       3 FBgn0031209… Ir21a, l… Peak_up…
 4 chr2L     25402  65404 PM_5      2727       1 FBgn0051973  Cda5      Peak_wi…
 5 chr2L     65609  71390 PS_7       764       4 FBgn0266878… lncRNA:C… Peak_en…
 6 chr2L     71039  77783 PS_8       763       3 FBgn0031213… galectin… Peak_en…
 7 chr2L     76348  87387 PM_9      3071       2 FBgn0031214… CG11374,… Peak_do…
 8 chr2L     93094 102086 PM_11      466       1 FBgn0031216  Zir       Peak_ov…
 9 chr2L     94739 106732 PS_14     1548       4 FBgn0031216… Zir, Cre… Peak_wi…
10 chr2L    114726 156030 PS_17      849      11 FBgn0031228… ND-15, N… Peak_wi…
# ℹ 2,863 more rows
# ℹ 2 more variables: distance_TSS <chr>, min_distance <chr>

$all
# A tibble: 7,069 × 33
   seqnames start   end width gene_seqnames gene_start gene_end gene_width
   <fct>    <int> <int> <dbl> <fct>              <int>    <int>      <int>
 1 chr2L     5154  9484  4331 chr2L               7529     9484       1956
 2 chr2L     9839 21376 11538 chr2L               9839    21376      11538
 3 chr2L    19789 25155  5367 chr2L              21823    25155       3333
 4 chr2L     9839 21643 11805 chr2L               9839    21376      11538
 5 chr2L    19789 24237  4449 chr2L              21952    24237       2286
 6 chr2L    25402 65404 40003 chr2L              25402    65404      40003
 7 chr2L    65609 68330  2722 chr2L              65999    66242        244
 8 chr2L    65609 68330  2722 chr2L              66318    66524        207
 9 chr2L    65609 71390  5782 chr2L              66482    71390       4909
10 chr2L    71493 76602  5110 chr2L              71757    76211       4455
# ℹ 7,059 more rows
# ℹ 25 more variables: gene_strand <fct>, peak_seqnames <fct>,
#   peak_start <int>, peak_end <int>, peak_width <int>, peak_strand <fct>,
#   ensembl_gene_id <chr>, gene_name <chr>, TSS <int>, n_regions <dbl>,
#   peak_id <chr>, rank_p <int>, logFC_match <dbl>, FDR <dbl>,
#   multiple_peaks <dbl>, region_pos <chr>, n_regions_dm <dbl>,
#   n_regions_not_dm <dbl>, peak_midpoint <dbl>, distance_TSS <dbl>, …
…
